nfv_vns : nfv_veth2 : 10.130.127.11 : 76:fc:82:3a:37:41 was created.
nfv_vns : nfv_veth4 : 10.130.127.31 : 82:bd:e4:06:30:1e was created.
nfv_vns : nfv_veth6 : 10.130.127.51 : 7a:ba:54:8f:64:09 was created.
nfv_vns : nfv_veth8 : 10.130.127.71 : 2e:0b:c9:68:ef:87 was created.
nfv_vns : nfv_veth10 : 10.130.127.91 : 4e:91:54:6f:66:60 was created.
nfv_vns : nfv_veth12 : 10.130.127.111 : ea:37:30:7b:32:85 was created.
nfv_vns : nfv_veth14 : 10.130.127.131 : 5e:c7:3b:cc:34:0c was created.
nfv_vns : nfv_veth16 : 10.130.127.151 : 4a:f8:3d:09:3a:da was created.
